[
    {
        "id": 1,
        "type": 1,
        "data": null,
        "time": "2 minutes ago"
    },
    {
        "id": 2,
        "type": 2,
        "data": null,
        "time": "4 minutes ago"
    },
    {
        "id": 3,
        "type": 3,
        "data": null,
        "time": "2 hours ago"
    },
    {
        "id": 4,
        "type": 4,
        "data": null,
        "time": "4 hours ago"
    },
    {
        "id": 5,
        "type": 5,
        "data": {"data": "783458"},
        "time": "6 hours ago"
    },
    {
        "id": 6,
        "type": 6,
        "data": {"data": "Social Boost"},
        "time": "Yesterday"
    }
]